G   G
A   A
T   T
C   C
A   A
C   C
A   A
G   G
G   G
T   T
C   C
T   T
A   A
T   T
C   C
A   A
C   C
C   C
C   C
T   T
A   A
T   T
T   T
A   A
A   A
C   C
C   C
A   A
C   C
T   T
C   C
A   A
C   C
G   G
G   G
G   G
A   A
G   G
C   C
T   T
C   C
T   T
C   C
C   C
A   A
T   T
G   G
C   C
A   A
T   T
T   T
T   T
G   G
G   G
T   T
A   A
T   T
T   T
T   T
T   T
C   C
G   G
T   T
C   C
T   T
G   G
G   G
G   G
G   G
G   G
G   G
T   T
G   A
T   T
G   G
C   C
A   A
C   C
G   G
C   C
G   G
A   A
T   T
A   A
G   G
C   C
A   A
T   T
T   T
G   G
C   C
G   G
A   A
G   G
A   A
C   C
G   G
C   C
T   T
G   G
G   G
A   A
G   G
C   C
C   C
G   G
G   G
A   A
G   G
C   C
A   A
C   C
C   C
C   C
T   T
A   A
T   T
G   G
T   T
C   C
G   G
C   C
A   A
G   G
T   T
A   A
T   T
C   C
T   T
G   G
T   T
C   C
T   T
T   T
T   T
G   G
A   A
T   T
T   T
C   C
C   C
T   T
G   G
C   C
C   C
C   T
C   C
A   A
T   -
T   T
C   C
C   C
-   T
A   A
T   T
T   T
A   A
T   T
T   T
T   T
A   A
T   T
C   C
G   G
C   C
A   A
C   C
C   C
T   T
A   A
C   C
G   G
T   T
T   T
C   C
A   A
A   A
T   T
A   A
T   T
T   T
A   A
C   C
A   A
G   G
G   G
C   C
G   G
A   A
G   A
C   C
A   A
T   T
A   A
C   C
T   T
T   T
A   A
C   C
T   T
G   A
A   A
A   A
G   G
T   T
G   G
T   T
G   G
T   T
T   T
A   A
A   A
T   T
T   T
A   A
A   A
T   T
T   T
A   A
A   A
T   T
G   G
C   C
T   T
T   T
G   G
T   T
A   A
G   G
G   G
A   A
C   C
A   A
T   T
A   A
A   A
T   T
A   A
A   A
T   T
A   A
A   A
C   C
G   A
A   A
C   T
T   T
A   G
A   A
A   A
T   T
G   G
T   T
C   C
T   T
G   G
C   C
A   A
C   C
A   A
G   G
C   C
T   C
G   A
C   C
T   T
T   T
T   T
C   C
C   C
A   A
C   C
A   A
C   C
A   A
G   G
A   A
C   C
A   A
T   T
C   C
A   A
T   T
A   A
A   A
C   C
A   A
A   A
A   A
A   A
A   A
A   A
T   T
T   T
T   T
C   C
C   C
A   A
C   C
C   C
A   A
A   A
A   A
C   C
C   C
C   C
C   C
C   C
C   C
C   C
T   T
C   C
C   C
C   C
C   C
C   C
G   G
C   C
T   T
T   T
C   C
T   T
G   G
G   G
C   C
C   C
A   A
C   C
A   A
G   G
C   C
A   A
C   C
T   T
T   T
A   A
A   A
A   A
C   C
A   A
C   C
A   A
T   T
C   C
T   T
C   C
T   T
G   G
C   C
C   C
A   A
A   A
A   A
C   C
C   C
C   C
C   C
A   A
A   A
A   A
A   A
A   A
C   C
A   A
A   A
A   A
G   G
A   A
A   A
C   C
C   C
C   C
T   T
A   A
A   A
C   C
A   A
C   C
C   C
A   A
G   G
C   C
C   C
T   T
A   A
A   A
C   C
C   C
A   A
G   G
A   A
T   T
T   T
T   T
C   C
A   A
A   A
A   A
T   T
T   T
T   T
T   T
A   A
T   T
C   C
T   T
T   T
T   T
T   T
G   G
G   G
C   C
G   G
G   G
T   T
A   A
T   T
A   G
C   C
A   A
C   C
T   T
T   T
T   T
T   T
A   A
A   A
C   C
A   A
G   G
T   T
C   C
A   A
C   C
C   C
C   C
C   C
C   C
T   C
A   A
A   A
C   C
T   T
A   A
A   A
C   C
A   A
C   C
A   A
T   T
T   T
A   A
T   T
T   T
T   T
T   T
C   C
C   C
C   C
C   C
T   T
C   C
C   C
C   C
A   A
C   C
T   T
C   C
C   C
C   C
A   A
T   T
A   A
C   C
T   T
A   A
C   C
T   T
A   A
A   A
T   T
C   C
T   T
C   C
A   A
T   T
C   C
A   A
A   A
T   T
A   A
C   C
A   A
A   A
C   C
C   C
C   C
C   C
C   C
G   G
C   C
C   C
C   C
A   A
T   T
C   C
C   C
T   T
A   A
C   C
C   C
C   C
A   A
G   G
-   C
-   A
-   C
-   A
C   C
A   A
C   C
A   A
C   C
A   A
C   C
C   C
G   G
C   C
T   T
G   G
C   C
T   T
A   A
A   A
C   C
C   C
C   C
C   C
A   A
T   T
A   A
C   C
C   C
C   C
C   C
G   G
A   A
G   A
C   C
C   C
A   A
A   A
C   C
C   C
A   A
A   A
A   A
C   C
C   C
C   C
C   C
A   A
A   A
A   A
G   G
A   A
C   C
A   A
C   C
C   C
C   C
C   C
C   C
C   C
A   A
C   C
A   A
G   G
T   T
T   T
T   T
A   A
T   T
G   G
T   T
A   A
G   G
C   C
T   T
T   T
A   A
C   C
C   C
T   T
C   C
C   C
T   T
C   C
A   -
A   -
A   A
G   -
C   -
A   A
A   A
