Old: 32: 0.00499415397644
New: 32: 0.0179522037506
Old: 64: 0.0161693096161
New: 64: 0.0445413589478
Old: 128: 0.063494682312
New: 128: 0.137073040009
Old: 256: 0.247513771057
New: 256: 0.419473171234
Old: 512: 0.983379602432
New: 512: 1.27271389961
Old: 1024: 3.93524718285
New: 1024: 3.8565196991
Old: 2048: 15.8735573292
New: 2048: 11.7095372677
Old: 4096: 69.0794377327
New: 4096: 35.8053622246
Old: 8192: 377.381655931
New: 8192: 109.964249849
Old: 16384: 1715.10277271
New: 16384: 342.907777071
Old: 32: 0.00500822067261
New: 32: 0.0179083347321
Old: 64: 0.0160956382751
New: 64: 0.0452592372894
Old: 128: 0.0636448860168
New: 128: 0.13785815239
Old: 32: 0.00471806526184
New: 32: 0.0184617042542
Old: 64: 0.0161776542664
New: 64: 0.0445551872253
Old: 128: 0.0635592937469
New: 128: 0.136843919754
Old: 256: 0.247133970261
New: 256: 0.413960695267
Old: 512: 0.985219955444
New: 512: 1.2695646286
Old: 1024: 3.93843269348
New: 1024: 3.84251475334
